<svg width="400" height="400" xmlns="http://www.w3.org/2000/svg">
 <!-- Created with Method Draw - http://github.com/duopixel/Method-Draw/ -->
 <g>
  <title>background</title>
  <rect fill="none" id="canvas_background" height="402" width="402" y="-1" x="-1"/>
  <g display="none" overflow="visible" y="0" x="0" height="100%" width="100%" id="canvasGrid">
   <rect fill="url(#gridpattern)" stroke-width="0" y="0" x="0" height="100%" width="100%"/>
  </g>
 </g>
 <g>
  <title>Layer 1</title>
  <rect rx="10" id="svg_1" height="385" width="385" y="7" x="7.5" stroke-width="1.5" stroke="#a5ba9a" fill="#a5b99a"/>
  <text stroke="#a5ba9a" transform="matrix(19.70687690415675,0,0,20.309823613449314,-439.47350408678545,-313.1063566150389) " xml:space="preserve" text-anchor="start" font-family="Junction, sans-serif" font-size="24" id="svg_2" y="33.852288" x="24.5" stroke-width="0" fill="#e5e5e5">B</text>
 </g>
</svg>